Division,WeightClassKg,Place,Name,Team,BodyweightKg,Best3SquatKg,Best3BenchKg,Best3DeadliftKg,TotalKg,Equipment,Event,Sex,BirthDate
Girls,44.23,1,Estrella Lobatos,Bridge City,43.82,65.77,22.68,72.57,161.03,Single-ply,SBD,F,
Girls,44.23,2,Alexis Smith,Bridge City,43.14,47.63,22.68,61.23,131.54,Single-ply,SBD,F,
Girls,44.23,3,Ilysa Cantu,Freeport Brazosport,41.78,47.63,20.41,56.7,124.74,Single-ply,SBD,F,
Girls,44.23,4,Addison Minter,Bridge City,39.87,47.63,22.68,49.9,120.2,Single-ply,SBD,F,
Girls,44.23,DQ,Avery Weidner,Bridge City,38.42,61.23,27.22,,,Single-ply,SBD,F,
Girls,44.23,DQ,Lia Nguyen,Hamshire-Fannett,43.18,,,,,Single-ply,SBD,F,
Girls,44.23,DQ,Savannah Ruiz,Livingston,41.1,70.31,,,,Single-ply,SBD,F,
Girls,44.23,DQ,Chloe Jacob,Orange Little Cypress-Mauriceville,43.95,,,,,Single-ply,SBD,F,
Girls,44.23,DQ,Kyleigh Sheffield,Splendora,42.27,,,,,Single-ply,SBD,F,
Girls,47.85,1,Lacey Tackett,Orangefield,47.49,124.74,74.84,133.81,333.39,Single-ply,SBD,F,
Girls,47.85,2,Michelle McBroom,West Columbia,47.85,113.4,61.23,106.59,281.23,Single-ply,SBD,F,
Girls,47.85,3,Linsey Tackett,Orangefield,45.77,104.33,58.97,106.59,269.89,Single-ply,SBD,F,
Girls,47.85,4,Kyndall Moffett,Livingston,47.67,92.99,56.7,111.13,260.82,Single-ply,SBD,F,
Girls,47.85,5,Xandria Garcia,Bay City,47.81,83.91,40.82,97.52,222.26,Single-ply,SBD,F,
Girls,47.85,6,Kenady Davis,Lumberton,46.72,81.65,43.09,95.25,219.99,Single-ply,SBD,F,
Girls,47.85,7,Kaylee Weikel,Sour Lake Hardin-Jefferson,47.26,92.99,34.02,83.91,210.92,Single-ply,SBD,F,
Girls,47.85,8,Caylee Wallace,Splendora,46.81,74.84,38.56,74.84,188.24,Single-ply,SBD,F,
Girls,47.85,DQ,Sadie Cary,Liberty,46.45,,,,,Single-ply,SBD,F,
Girls,47.85,DQ,Roeslyn Garcia,Hamshire-Fannett,46.27,,,,,Single-ply,SBD,F,
Girls,47.85,DQ,Kaelyn Wiginton,Sweeny,47.63,,,,,Single-ply,SBD,F,
Girls,51.94,1,Tori Moore,Splendora,51.35,108.86,68.04,117.93,294.84,Single-ply,SBD,F,
Girls,51.94,2,Cheyenne Lowrance,Shepherd,50.3,95.25,52.16,106.59,254.01,Single-ply,SBD,F,
Girls,51.94,3,Julia Gigliotta,Lumberton,49.26,95.25,52.16,102.06,249.48,Single-ply,SBD,F,
Girls,51.94,4,Kira Marksberry,Splendora,49.31,92.99,49.9,102.06,244.94,Single-ply,SBD,F,
Girls,51.94,5,Ariana Hester,Hamshire-Fannett,49.4,81.65,45.36,102.06,229.06,Single-ply,SBD,F,
Girls,51.94,6,Brianna Williams,Vidor,50.8,86.18,43.09,95.25,224.53,Single-ply,SBD,F,
Girls,51.94,7,Madison Rudkin,West Columbia,51.53,83.91,47.63,92.99,224.53,Single-ply,SBD,F,
Girls,51.94,8,DaSasha Janice,West Orange-Stark,50.8,79.38,34.02,99.79,213.19,Single-ply,SBD,F,
Girls,51.94,9,Alexis Alvarez,Bay City,51.57,79.38,38.56,83.91,201.85,Single-ply,SBD,F,
Girls,51.94,10,Jalynn Guillory,West Orange-Stark,48.4,65.77,29.48,79.38,174.63,Single-ply,SBD,F,
Girls,51.94,11,Donna Palencia,Bay City,50.67,61.23,34.02,70.31,165.56,Single-ply,SBD,F,
Girls,51.94,DQ,Lyana Schexnayder,Lumberton,50.89,,,,,Single-ply,SBD,F,
Girls,51.94,DQ,Hope Dilley,Vidor,50.67,111.13,,,,Single-ply,SBD,F,
Girls,51.94,DQ,Kennedy Tucker,Sweeny,50.3,,,,,Single-ply,SBD,F,
Girls,56.02,1,Fernanda Galvez,Splendora,53.8,104.33,56.7,117.93,278.96,Single-ply,SBD,F,
Girls,56.02,2,Camryn Barragan,Vidor,54.43,108.86,45.36,115.67,269.89,Single-ply,SBD,F,
Girls,56.02,3,Sharla Ruiz,Shepherd,54.39,106.59,56.7,104.33,267.62,Single-ply,SBD,F,
Girls,56.02,4,Lexis Collins,Splendora,53.52,97.52,56.7,106.59,260.82,Single-ply,SBD,F,
Girls,56.02,5,Amber Withers,Lumberton,53.07,92.99,52.16,111.13,256.28,Single-ply,SBD,F,
Girls,56.02,6,Ashlin Anselmo,Lumberton,54.3,97.52,47.63,104.33,249.48,Single-ply,SBD,F,
Girls,56.02,7,Aphia Baker,Shepherd,55.02,81.65,56.7,95.25,233.6,Single-ply,SBD,F,
Girls,56.02,8,Jayden Miller #4,West Orange-Stark,55.7,74.84,31.75,99.79,206.38,Single-ply,SBD,F,
Girls,56.02,9,Ja'Noria Harrell,Livingston,53.16,61.23,45.36,90.72,197.31,Single-ply,SBD,F,
Girls,56.02,10,Jamie Ener,Bridge City,54.75,61.23,36.29,83.91,181.44,Single-ply,SBD,F,
Girls,56.02,DQ,Lidianna Reyes,Lumberton,54.88,90.72,,,,Single-ply,SBD,F,
Girls,56.02,DQ,Karmen Hanzik,West Columbia,53.89,79.38,61.23,,,Single-ply,SBD,F,
Girls,56.02,DQ,Annie Bebee,Silsbee,54.98,,,,,Single-ply,SBD,F,
Girls,60.1,1,Kylie Welch,Vidor,59.6,154.22,88.45,158.76,401.43,Single-ply,SBD,F,
Girls,60.1,2,Gia Wilson,Splendora,59.38,108.86,81.65,108.86,299.37,Single-ply,SBD,F,
Girls,60.1,3,Karrenton Fillyaw,Hamshire-Fannett,58.33,108.86,54.43,117.93,281.23,Single-ply,SBD,F,
Girls,60.1,4,Maria Gutierrez,Livingston,56.43,90.72,54.43,111.13,256.28,Single-ply,SBD,F,
Girls,60.1,5,Giselle Arguello,Splendora,56.38,102.06,47.63,102.06,251.74,Single-ply,SBD,F,
Girls,60.1,6,Hailey Reimer,Splendora,58.15,88.45,47.63,108.86,244.94,Single-ply,SBD,F,
Girls,60.1,7,Abby Manous,Lumberton,57.83,97.52,40.82,102.06,240.4,Single-ply,SBD,F,
Girls,60.1,8,Savannah Marin,Needville,58.33,90.72,47.63,90.72,229.06,Single-ply,SBD,F,
Girls,60.1,9,Allyson Yeaman,Bridge City,56.61,70.31,38.56,83.91,192.78,Single-ply,SBD,F,
Girls,60.1,10,Caitlyn Yost,Bridge City,59.87,70.31,31.75,86.18,188.24,Single-ply,SBD,F,
Girls,60.1,DQ,Azia Walker,West Orange-Stark,57.79,,,,,Single-ply,SBD,F,
Girls,60.1,DQ,Nakeylee Ross,West Orange-Stark,59.87,,,,,Single-ply,SBD,F,
Girls,60.1,DQ,Natalie Sharpe,West Columbia,56.61,,,,,Single-ply,SBD,F,
Girls,67.36,1,Emma Dycus,Vidor,64.14,145.15,92.99,147.42,385.55,Single-ply,SBD,F,
Girls,67.36,2,Lizbeth Amezquita,Bay City,66.18,147.42,79.38,122.47,349.27,Single-ply,SBD,F,
Girls,67.36,3,Emma Smith,Silsbee,65.77,129.27,68.04,142.88,340.19,Single-ply,SBD,F,
Girls,67.36,4,Brooke Underdown,Lumberton,65.59,138.35,58.97,131.54,328.85,Single-ply,SBD,F,
Girls,67.36,5,Isabella Lopez,Sour Lake Hardin-Jefferson,62.6,120.2,58.97,140.61,319.78,Single-ply,SBD,F,
Girls,67.36,6,Kassidy Tucker,Sweeny,67.36,124.74,65.77,122.47,312.98,Single-ply,SBD,F,
Girls,67.36,7,Ashlynn Flores,Bay City,64.68,124.74,61.23,124.74,310.71,Single-ply,SBD,F,
Girls,67.36,8,Olivia McWherter,Vidor,65.77,117.93,61.23,129.27,308.44,Single-ply,SBD,F,
Girls,67.36,9,Caitylyn Brown,Lumberton,61.69,117.93,56.7,122.47,297.1,Single-ply,SBD,F,
Girls,67.36,10,Macayla Edwards,Liberty,61.37,115.67,49.9,120.2,285.76,Single-ply,SBD,F,
Girls,67.36,11,Ashley Gonzalez,Shepherd,62.37,108.86,58.97,113.4,281.23,Single-ply,SBD,F,
Girls,67.36,12,Jiselle Velez,West Columbia,67.04,97.52,52.16,102.06,251.74,Single-ply,SBD,F,
Girls,67.36,DQ,Madison White,Silsbee,61.46,124.74,,,,Single-ply,SBD,F,
Girls,67.36,DQ,Anna Broussard,Lumberton,66.13,,,,,Single-ply,SBD,F,
Girls,67.36,DQ,Tessa Jacks,Hamshire-Fannett,61.6,,,,,Single-ply,SBD,F,
Girls,75.07,1,Sage Grooms,Vidor,73.62,158.76,83.91,170.1,412.77,Single-ply,SBD,F,
Girls,75.07,2,Shelby Dean,Shepherd,71.49,156.49,81.65,158.76,396.89,Single-ply,SBD,F,
Girls,75.07,3,Meirabella Rouane,Needville,72.89,136.08,77.11,136.08,349.27,Single-ply,SBD,F,
Girls,75.07,4,Cora Sievertson,Shepherd,73.94,133.81,74.84,129.27,337.93,Single-ply,SBD,F,
Girls,75.07,5,Chloey Verde,Lumberton,70.94,131.54,65.77,127.01,324.32,Single-ply,SBD,F,
Girls,75.07,6,Lisbeth Manzano,Splendora,75.02,120.2,61.23,124.74,306.17,Single-ply,SBD,F,
Girls,75.07,7,Haley Jones,West Columbia,74.75,108.86,56.7,111.13,276.69,Single-ply,SBD,F,
Girls,75.07,8,Olivia Mihalovich,Sweeny,73.12,108.86,47.63,106.59,263.08,Single-ply,SBD,F,
Girls,75.07,9,Kaydence Tatom,Silsbee,67.49,99.79,61.23,97.52,258.55,Single-ply,SBD,F,
Girls,75.07,DQ,D'Lanie Spoonemoore,Silsbee,67.99,,,,,Single-ply,SBD,F,
Girls,75.07,DQ,Emma Hutson,Vidor,73.84,,,,,Single-ply,SBD,F,
Girls,75.07,DQ,Kamryn Brown,Sweeny,69.63,113.4,68.04,,,Single-ply,SBD,F,
Girls,75.07,DQ,Jasmine Boozy,Sweeny,72.62,,,,,Single-ply,SBD,F,
Girls,75.07,DQ,Jaden Brown #2,Orange Little Cypress-Mauriceville,74.84,,,,,Single-ply,SBD,F,
Girls,75.07,DQ,Kenson Alton,Splendora,74.84,,,,,Single-ply,SBD,F,
Girls,75.07,DQ,Kamille Queen,West Orange-Stark,69.58,102.06,45.36,,,Single-ply,SBD,F,
Girls,82.33,1,Leah Hensarling,Splendora,76.79,181.44,92.99,145.15,419.57,Single-ply,SBD,F,
Girls,82.33,2,Ariana Williams,Sweeny,75.3,136.08,74.84,136.08,347,Single-ply,SBD,F,
Girls,82.33,3,Kyana Berry,Splendora,76.61,129.27,74.84,127.01,331.12,Single-ply,SBD,F,
Girls,82.33,4,Priscilla Gomez,Splendora,75.21,115.67,74.84,117.93,308.44,Single-ply,SBD,F,
Girls,82.33,5,Carly Jeffcoat,Sour Lake Hardin-Jefferson,80.51,120.2,65.77,117.93,303.91,Single-ply,SBD,F,
Girls,82.33,6,Celine Reyes,Bay City,77.66,124.74,49.9,113.4,288.03,Single-ply,SBD,F,
Girls,82.33,7,Cara Heisner,Silsbee,81.24,102.06,63.5,113.4,278.96,Single-ply,SBD,F,
Girls,82.33,DQ,Abbigail Hudnall,Orange Little Cypress-Mauriceville,80.24,90.72,45.36,,,Single-ply,SBD,F,
Girls,82.33,DQ,Kylie Hartt,Silsbee,77.25,104.33,52.16,,,Single-ply,SBD,F,
Girls,82.33,DQ,Abby Peeler,Lumberton,75.39,,,,,Single-ply,SBD,F,
Girls,82.33,DQ,Baybah Vasquez,Splendora,80.24,95.25,49.9,,,Single-ply,SBD,F,
Girls,82.33,DQ,Kylie Jones,Splendora,76.93,,,,,Single-ply,SBD,F,
Girls,82.33,DQ,Makaylah Pete,Silsbee,80.29,,,,,Single-ply,SBD,F,
Girls,82.33,DQ,Laryssa Pitts,Splendora,75.43,95.25,,,,Single-ply,SBD,F,
Girls,82.33,DQ,Makenzie Anderson,West Columbia,81.1,138.35,83.91,,,Single-ply,SBD,F,
Girls,90.04,1,Kayla Hays,Splendora,84.28,140.61,88.45,138.35,367.41,Single-ply,SBD,F,
Girls,90.04,2,Gracie Fontenot,Bridge City,82.51,149.69,61.23,124.74,335.66,Single-ply,SBD,F,
Girls,90.04,3,Nayelee Zepeda,Splendora,86.18,133.81,77.11,124.74,335.66,Single-ply,SBD,F,
Girls,90.04,4,Gabby Krazter,Livingston,87.95,124.74,65.77,136.08,326.59,Single-ply,SBD,F,
Girls,90.04,5,Silvia Botello,Vidor,85.14,117.93,63.5,138.35,319.78,Single-ply,SBD,F,
Girls,90.04,6,Erin Morales,Needville,83.82,127.01,58.97,124.74,310.71,Single-ply,SBD,F,
Girls,90.04,7,Alexis Argueta,Splendora,82.6,129.27,63.5,108.86,301.64,Single-ply,SBD,F,
Girls,90.04,8,Amanda Nowak,Needville,84.46,115.67,56.7,104.33,276.69,Single-ply,SBD,F,
Girls,90.04,9,Jessica Frasier,Bay City,85,90.72,47.63,106.59,244.94,Single-ply,SBD,F,
Girls,90.04,DQ,Sophia Pittner,Hamshire-Fannett,87.32,,,,,Single-ply,SBD,F,
Girls,90.04,DQ,Katlyn Pollard,Shepherd,88.22,,,,,Single-ply,SBD,F,
Girls,90.04,DQ,Neida Trejo,Splendora,84.41,120.2,61.23,,,Single-ply,SBD,F,
Girls,90.04,DQ,Hailey Santimauro,Sweeny,90.04,158.76,99.79,,,Single-ply,SBD,F,
Girls,90.04,DQ,Aris Batts,West Orange-Stark,88.86,133.81,61.23,,,Single-ply,SBD,F,
Girls,100.02,1,Alissa White,Lumberton,90.81,163.29,86.18,149.69,399.16,Single-ply,SBD,F,
Girls,100.02,2,Marissa Caskey,Vidor,99.52,145.15,99.79,151.95,396.89,Single-ply,SBD,F,
Girls,100.02,3,Ellis Pudhome,Vidor,98.25,131.54,77.11,145.15,353.8,Single-ply,SBD,F,
Girls,100.02,4,Shelby Kaack,Needville,96.52,136.08,95.25,120.2,351.53,Single-ply,SBD,F,
Girls,100.02,5,Abbigayle Rice,Sour Lake Hardin-Jefferson,98.52,108.86,54.43,122.47,285.76,Single-ply,SBD,F,
Girls,100.02,6,Hannah Harris,Needville,90.76,104.33,56.7,104.33,265.35,Single-ply,SBD,F,
Girls,100.02,7,Maddy Rodriguez,Hamshire-Fannett,90.54,90.72,45.36,99.79,235.87,Single-ply,SBD,F,
Girls,100.02,8,Amaya Ramos,Freeport Brazosport,94.98,74.84,43.09,79.38,197.31,Single-ply,SBD,F,
Girls,100.02,DQ,Heavan Lynch,Bridge City,96.75,,,,,Single-ply,SBD,F,
Girls,100.02,DQ,Haizel Padron,Bridge City,91.58,124.74,56.7,,,Single-ply,SBD,F,
Girls,100.02,DQ,Abby Martin,Hamshire-Fannett,93.44,136.08,,,,Single-ply,SBD,F,
Girls,100.02,DQ,Cadance Howard,Sour Lake Hardin-Jefferson,93.58,,,,,Single-ply,SBD,F,
Girls,100.02,DQ,Sadie Mills,Stafford,97.98,,,,,Single-ply,SBD,F,
Girls,100.02,DQ,Jaida Smith,Orangefield,99.79,,,,,Single-ply,SBD,F,
Girls,117.71,1,Thalia Pina,Freeport Brazosport,104.55,163.29,70.31,142.88,376.48,Single-ply,SBD,F,
Girls,117.71,2,Asianna Stewart,Sweeny,103.51,142.88,102.06,129.27,374.21,Single-ply,SBD,F,
Girls,117.71,3,Tarah Boone,Needville,104.87,145.15,81.65,124.74,351.53,Single-ply,SBD,F,
Girls,117.71,4,Takirah Seale,Jasper,105.05,136.08,79.38,108.86,324.32,Single-ply,SBD,F,
Girls,117.71,5,Evelyn Aldaco,Orange Little Cypress-Mauriceville,110.4,124.74,56.7,120.2,301.64,Single-ply,SBD,F,
Girls,117.71,6,Alexis Whittlesey,Lumberton,105.28,117.93,56.7,111.13,285.76,Single-ply,SBD,F,
Girls,117.71,7,Jaden Banchor,Lumberton,100.38,97.52,49.9,111.13,258.55,Single-ply,SBD,F,
Girls,117.71,8,Haylee Lebouef,Orange Little Cypress-Mauriceville,102.1,90.72,45.36,108.86,244.94,Single-ply,SBD,F,
Girls,117.71,9,Aliyah Padilla,Silsbee,103.1,97.52,43.09,104.33,244.94,Single-ply,SBD,F,
Girls,117.71,DQ,Haven Myers,Splendora,115.67,,,,,Single-ply,SBD,F,
Girls,117.71,DQ,Mikayla Williams,Splendora,102.42,124.74,79.38,,,Single-ply,SBD,F,
Girls,117.71,DQ,Hannah Sullivan,Orangefield,110.5,,,,,Single-ply,SBD,F,
Girls,117.71,DQ,Kristishae Watts,Jasper,114.26,,,,,Single-ply,SBD,F,
Girls,117.71,DQ,Ashton Keller,Huffman Hargrave,117.48,,,,,Single-ply,SBD,F,
Girls,117.71+,1,Madison Mewbourn,Sour Lake Hardin-Jefferson,118.02,161.03,70.31,124.74,356.07,Single-ply,SBD,F,
Girls,117.71+,2,Nortazia McGhee,West Orange-Stark,127.37,120.2,47.63,140.61,308.44,Single-ply,SBD,F,
Girls,117.71+,3,Kaitlyn Lowe,Needville,144.02,108.86,40.82,122.47,272.16,Single-ply,SBD,F,
Girls,117.71+,4,Kaitlyn Vela,Freeport Brazosport,148.42,99.79,54.43,111.13,265.35,Single-ply,SBD,F,
Girls,117.71+,DQ,D'Majani Jones,La Marque,121.43,,,,,Single-ply,SBD,F,
Girls,117.71+,DQ,Lauren Walters,Shepherd,119.16,,,,,Single-ply,SBD,F,
Girls,117.71+,DQ,T'Shyia Evans,Silsbee,143.83,113.4,68.04,,,Single-ply,SBD,F,
