Division,WeightClassKg,Place,Name,Team,BodyweightKg,Best3SquatKg,Best3BenchKg,Best3DeadliftKg,TotalKg,Equipment,Event,Sex,BirthDate
Boys,59.87,1,Eric Julio,Houston Northbrook,59.42,165.56,83.91,165.56,415.04,Single-ply,SBD,M,
Boys,59.87,2,Diego Manteca,Waller,59.42,133.81,68.04,131.54,333.39,Single-ply,SBD,M,
Boys,59.87,3,Jacob Robinson,Waller,59.42,127.01,72.57,129.27,328.85,Single-ply,SBD,M,
Boys,59.87,DQ,Christian Herrera,Houston Northbrook,59.87,,54.43,102.06,,Single-ply,SBD,M,
Boys,67.13,1,Marcello Villarreal,Houston Northbrook,65.77,124.74,70.31,133.81,328.85,Single-ply,SBD,M,
Boys,67.13,2,Miguel De Luna,Waller,60.78,111.13,68.04,127.01,306.17,Single-ply,SBD,M,
Boys,67.13,3,Lance Rice,Waller,61.23,113.4,68.04,117.93,299.37,Single-ply,SBD,M,
Boys,74.84,1,Gabrial Mata,Houston Northbrook,73.94,149.69,81.65,188.24,419.57,Single-ply,SBD,M,
Boys,74.84,2,Joshua Cadieux,Waller,71.21,136.08,81.65,147.42,365.14,Single-ply,SBD,M,
Boys,74.84,3,Miguel Garcia-Garcia,Waller,68.04,136.08,97.52,124.74,358.34,Single-ply,SBD,M,
Boys,74.84,DQ,Evan Exley,Waller,74.84,131.54,83.91,,,Single-ply,SBD,M,
Boys,74.84,DQ,Adam Vance,Waller,69.4,120.2,83.91,,,Single-ply,SBD,M,
Boys,82.1,NS,Joshuah Mondragon,Houston Northbrook,,,,,,Single-ply,SBD,M,
Boys,89.81,1,Zach Phipps,Waller,88.9,192.78,115.67,204.12,512.56,Single-ply,SBD,M,
Boys,89.81,2,Joshua Solt,Waller,87.09,183.7,120.2,183.7,487.61,Single-ply,SBD,M,
Boys,89.81,3,Ryan Garcia,Waller,87.54,158.76,115.67,156.49,430.91,Single-ply,SBD,M,
Boys,89.81,4,Miguel Huerta,Waller,87.54,138.35,77.11,145.15,360.61,Single-ply,SBD,M,
Boys,99.79,1,Caleb Godfrey,Waller,96.16,165.56,124.74,163.29,453.59,Single-ply,SBD,M,
Boys,99.79,2,Jairo Garcia,Waller,98.88,149.69,111.13,165.56,426.38,Single-ply,SBD,M,
Boys,99.79,3,Sebastian Guzman,Houston Northbrook,93.89,90.72,43.09,113.4,247.21,Single-ply,SBD,M,
Boys,109.77,1,Prince Echevarry,Houston Northbrook,108.41,217.72,120.2,215.46,553.38,Single-ply,SBD,M,
