Division,WeightClassKg,Place,Name,Team,BodyweightKg,Best3SquatKg,Best3BenchKg,Best3DeadliftKg,TotalKg,Equipment,Event,Sex,BirthDate
Boys,67.13,1,Cooper Roberts,Dallas Highland Park,64.86,138.35,95.25,176.9,410.5,Single-ply,SBD,M,
Boys,67.13,2,Chris Granados,Richardson Berkner,61.69,117.93,70.31,138.35,326.59,Single-ply,SBD,M,
Boys,89.81,1,Spencer Bell,Dallas Highland Park,83.01,149.69,102.06,147.42,399.16,Single-ply,SBD,M,
Boys,99.79,1,Michael Jordan,Richardson Berkner,93.89,165.56,104.33,183.7,453.59,Single-ply,SBD,M,
Boys,99.79,2,Whit Basso,Dallas Highland Park,94.35,165.56,104.33,183.7,453.59,Single-ply,SBD,M,
Boys,109.77,1,Rodolfo Ramirez,Richardson Pearce,102.06,215.46,127.01,217.72,560.19,Single-ply,SBD,M,
Boys,109.77,2,Lewis Montgomery,Dallas Highland Park,100.7,149.69,99.79,151.95,401.43,Single-ply,SBD,M,
Boys,124.74,1,Reid Kennedy,Dallas Highland Park,114.31,217.72,136.08,172.37,526.17,Single-ply,SBD,M,
Boys,124.74,2,Tony Ayers,Richardson Berkner,117.03,156.49,77.11,183.7,417.3,Single-ply,SBD,M,
Boys,124.74,3,Jake Watts,Dallas Highland Park,110.68,163.29,83.91,142.88,390.09,Single-ply,SBD,M,
Boys,139.71,1,JaiDen Johnson,Richardson Berkner,125.65,215.46,108.86,226.8,551.11,Single-ply,SBD,M,
Boys,139.71,2,Gannon Gaubert,Dallas Highland Park,130.63,204.12,131.54,213.19,548.85,Single-ply,SBD,M,
Boys,139.71,3,Grant Gibson,Dallas Highland Park,131.09,204.12,113.4,195.04,512.56,Single-ply,SBD,M,
Boys,139.71,4,Dylan Woodward,Dallas Highland Park,128.37,165.56,102.06,170.1,437.72,Single-ply,SBD,M,
Boys,139.71+,1,Charlie Wilson,Dallas Highland Park,140.61,226.8,117.93,204.12,548.85,Single-ply,SBD,M,
Boys,139.71+,2,Sam Conyers,Richardson Berkner,158.76,149.69,99.79,183.7,433.18,Single-ply,SBD,M,
