Division,WeightClassKg,Place,Name,Team,BodyweightKg,Best3SquatKg,Best3BenchKg,Best3DeadliftKg,TotalKg,Equipment,Event,Sex,BirthDate
Girls,47.85,1,Gia'Nah Sparks,Cedar Hill,47.81,120.2,61.23,129.27,310.71,Single-ply,SBD,F,
Girls,47.85,2,Aya Laaziz,Wylie,46.9,104.33,49.9,111.13,265.35,Single-ply,SBD,F,
Girls,47.85,3,Emerson Weaver,Frisco Heritage,47.08,95.25,52.16,106.59,254.01,Single-ply,SBD,F,
Girls,47.85,4,Avery Quiroga,Wylie,47.04,99.79,47.63,99.79,247.21,Single-ply,SBD,F,
Girls,47.85,5,Jennifer Muniz,Sherman,47.31,90.72,47.63,99.79,238.14,Single-ply,SBD,F,
Girls,47.85,6,Katelynn Wagner,Melissa,44.72,90.72,47.63,86.18,224.53,Single-ply,SBD,F,
Girls,47.85,7,Celeste Novick,Frisco Wakeland,46.77,92.99,43.09,79.38,215.46,Single-ply,SBD,F,
Girls,47.85,8,Emily Serrano,Princeton,44.45,70.31,43.09,81.65,195.04,Single-ply,SBD,F,
Girls,47.85,9,Calie Wiedemann,Melissa,46.22,74.84,31.75,86.18,192.78,Single-ply,SBD,F,
Girls,47.85,10,Myah Soza,Nevada Community,45.45,65.77,29.48,63.5,158.76,Single-ply,SBD,F,
Girls,47.85,DQ,Jasmine Flores,Carrollton Creekview,47.72,74.84,,,,Single-ply,SBD,F,
Girls,47.85,DQ,Sevinch Halmirzaeva,Carrollton Ranchview,47.63,,,,,Single-ply,SBD,F,
Girls,51.94,1,Natalie Walker,Princeton,51.35,145.15,74.84,138.35,358.34,Single-ply,SBD,F,
Girls,51.94,2,Jailynn Huynh,Wylie,51.94,120.2,61.23,127.01,308.44,Single-ply,SBD,F,
Girls,51.94,3,Carina Mata,Sherman,50.21,106.59,52.16,104.33,263.08,Single-ply,SBD,F,
Girls,51.94,4,Brooke Daniel,Nevada Community,51.12,102.06,49.9,99.79,251.74,Single-ply,SBD,F,
Girls,51.94,5,Lizbeth Banda,Carrollton Turner,50.3,90.72,45.36,97.52,233.6,Single-ply,SBD,F,
Girls,51.94,6,Chandler Gray,Melissa,51.07,102.06,38.56,83.91,224.53,Single-ply,SBD,F,
Girls,51.94,7,Allison Irby,Wylie,51.35,77.11,43.09,81.65,201.85,Single-ply,SBD,F,
Girls,51.94,8,Ashley Tankersley,Blue Ridge,51.89,70.31,38.56,74.84,183.7,Single-ply,SBD,F,
Girls,51.94,9,Nayeli Delgado,Carrollton Turner,48.72,58.97,31.75,74.84,165.56,Single-ply,SBD,F,
Girls,51.94,10,Julia Garlin,Melissa,49.94,52.16,27.22,61.23,140.61,Single-ply,SBD,F,
Girls,51.94,11,Lisette Jaramillo,Carrollton Turner,49.44,40.82,24.95,54.43,120.2,Single-ply,SBD,F,
Girls,51.94,DQ,Cameron Taylor #2,Carrollton Ranchview,51.71,,,,,Single-ply,SBD,F,
Girls,51.94,DQ,Michelle Gutierrez,Castleberry,51.71,,,,,Single-ply,SBD,F,
Girls,56.02,1,Saniah Rivera,Wylie,55.25,124.74,56.7,136.08,317.51,Single-ply,SBD,F,
Girls,56.02,2,Raegan Knight,Melissa,55.66,115.67,79.38,120.2,315.25,Single-ply,SBD,F,
Girls,56.02,3,Shelley Sugiharto,Wylie,52.93,120.2,65.77,127.01,312.98,Single-ply,SBD,F,
Girls,56.02,4,Maddie Wethington,Wylie,55.79,127.01,70.31,115.67,312.98,Single-ply,SBD,F,
Girls,56.02,5,Hannah Ray,Wylie,55.29,122.47,61.23,124.74,308.44,Single-ply,SBD,F,
Girls,56.02,6,Naomi Williams,Wylie,55.34,113.4,70.31,108.86,292.57,Single-ply,SBD,F,
Girls,56.02,7,Samantha Calvache,Wylie,52.03,104.33,56.7,117.93,278.96,Single-ply,SBD,F,
Girls,56.02,8,Fatima De Anda,Frisco Heritage,52.8,122.47,47.63,106.59,276.69,Single-ply,SBD,F,
Girls,56.02,9,Ella Branson,Melissa,54.75,106.59,56.7,102.06,265.35,Single-ply,SBD,F,
Girls,56.02,10,Abby Carraway,Lucas Lovejoy,54.34,90.72,54.43,97.52,242.67,Single-ply,SBD,F,
Girls,56.02,11,Emmilee Ratliff,Farmersville,55.07,79.38,43.09,90.72,213.19,Single-ply,SBD,F,
Girls,56.02,12,Mykl'Mechel Dubose,Carrollton Creekview,55.02,68.04,47.63,95.25,210.92,Single-ply,SBD,F,
Girls,56.02,13,Haley Davidson,Blue Ridge,55.47,68.04,36.29,90.72,195.04,Single-ply,SBD,F,
Girls,56.02,14,Kasie Burk,Nevada Community,52.25,68.04,34.02,70.31,172.37,Single-ply,SBD,F,
Girls,56.02,15,Susanna Montenegro,Carrollton Turner,54.52,65.77,27.22,74.84,167.83,Single-ply,SBD,F,
Girls,56.02,16,Allison Estrada,Carrollton Turner,56.02,36.29,20.41,61.23,117.93,Single-ply,SBD,F,
Girls,56.02,DQ,Kristyn Hoffard,Wylie East,54.88,129.27,56.7,,,Single-ply,SBD,F,
Girls,56.02,DQ,Gabriella Bailey,Princeton,55.11,54.43,,,,Single-ply,SBD,F,
Girls,60.1,1,Tyler Hanson,Wylie,59.15,142.88,97.52,124.74,365.14,Single-ply,SBD,F,
Girls,60.1,2,Kaylan Ghafoor,Wylie,60.1,147.42,70.31,133.81,351.53,Single-ply,SBD,F,
Girls,60.1,3,Taija Barnes,Cedar Hill,59.38,136.08,52.16,113.4,301.64,Single-ply,SBD,F,
Girls,60.1,4,Jenny Moore,Frisco Heritage,59.01,122.47,54.43,122.47,299.37,Single-ply,SBD,F,
Girls,60.1,5,Aishida Robinson,Cedar Hill,59.78,108.86,52.16,127.01,288.03,Single-ply,SBD,F,
Girls,60.1,6,Eden Yeneneh,Wylie,58.47,124.74,56.7,102.06,283.5,Single-ply,SBD,F,
Girls,60.1,7,Mattie Willingham,Nevada Community,58.74,120.2,45.36,111.13,276.69,Single-ply,SBD,F,
Girls,60.1,8,Cedricia Battles,Cedar Hill,57.74,108.86,52.16,113.4,274.42,Single-ply,SBD,F,
Girls,60.1,9,Krista Smith,Melissa,60.1,104.33,52.16,106.59,263.08,Single-ply,SBD,F,
Girls,60.1,10,Devin Davis #1,Frisco Memorial,59.83,102.06,49.9,108.86,260.82,Single-ply,SBD,F,
Girls,60.1,11,Mia Little,Castleberry,59.28,86.18,56.7,113.4,256.28,Single-ply,SBD,F,
Girls,60.1,12,Breanna Thompson,Carrollton Creekview,57.97,90.72,52.16,108.86,251.74,Single-ply,SBD,F,
Girls,60.1,13,Zachariah Jordan,Terrell,59.47,97.52,38.56,111.13,247.21,Single-ply,SBD,F,
Girls,60.1,14,Phoebe Attaway,Farmersville,58.51,97.52,47.63,90.72,235.87,Single-ply,SBD,F,
Girls,60.1,15,Kadyn King,Melissa,58.11,88.45,40.82,97.52,226.8,Single-ply,SBD,F,
Girls,60.1,16,Penelope Ortega,Castleberry,56.43,83.91,52.16,88.45,224.53,Single-ply,SBD,F,
Girls,60.1,17,Jackie Garcia,Nevada Community,56.15,81.65,36.29,90.72,208.65,Single-ply,SBD,F,
Girls,60.1,18,Abigail Odle,Princeton,57.79,79.38,40.82,86.18,206.38,Single-ply,SBD,F,
Girls,60.1,19,Aleny Gomez,Carrollton Turner,58.88,86.18,36.29,81.65,204.12,Single-ply,SBD,F,
Girls,60.1,20,Shelbi Baker,Carrollton Creekview,56.88,61.23,38.56,102.06,201.85,Single-ply,SBD,F,
Girls,60.1,21,Makayla Grabowski,Farmersville,58.51,77.11,36.29,79.38,192.78,Single-ply,SBD,F,
Girls,60.1,22,Jade Cox,Howe,58.38,90.72,45.36,54.43,190.51,Single-ply,SBD,F,
Girls,60.1,23,Jordan McPherson,Blue Ridge,57.65,74.84,34.02,79.38,188.24,Single-ply,SBD,F,
Girls,60.1,24,Briana Todor,Carrollton Creekview,59.96,56.7,24.95,70.31,151.95,Single-ply,SBD,F,
Girls,60.1,DQ,Mahalia Morrow,Carrollton Ranchview,57.97,,,,,Single-ply,SBD,F,
Girls,67.36,1,Sydney Hathaway,Wylie,60.28,131.54,79.38,131.54,342.46,Single-ply,SBD,F,
Girls,67.36,2,Cassandra Arroyo,Nevada Community,63.82,145.15,61.23,133.81,340.19,Single-ply,SBD,F,
Girls,67.36,3,Shayla Nguyen,Wylie,67.22,129.27,79.38,127.01,335.66,Single-ply,SBD,F,
Girls,67.36,4,Amanda Thompson #4,Frisco Centennial,65.91,124.74,61.23,124.74,310.71,Single-ply,SBD,F,
Girls,67.36,5,Alayna Parram,Cedar Hill,66.9,120.2,52.16,136.08,308.44,Single-ply,SBD,F,
Girls,67.36,6,Devon Bellomy,Wylie,65.05,127.01,61.23,111.13,299.37,Single-ply,SBD,F,
Girls,67.36,7,MacKenzie Brown #1,Frisco Heritage,60.74,131.54,54.43,106.59,292.57,Single-ply,SBD,F,
Girls,67.36,8,Maddy Geller,Wylie East,62.37,115.67,61.23,115.67,292.57,Single-ply,SBD,F,
Girls,67.36,9,Teona Brown,Cedar Hill,62.41,127.01,45.36,102.06,274.42,Single-ply,SBD,F,
Girls,67.36,10,Su Bin Park,Frisco Heritage,65.18,108.86,49.9,115.67,274.42,Single-ply,SBD,F,
Girls,67.36,11,Nelly Gomez,Carrollton Creekview,67,95.25,52.16,113.4,260.82,Single-ply,SBD,F,
Girls,67.36,12,Selene Roman-Ramos,Wylie East,63.55,104.33,52.16,102.06,258.55,Single-ply,SBD,F,
Girls,67.36,13,Veronica Vanegas,Carrollton Creekview,66.9,102.06,43.09,113.4,258.55,Single-ply,SBD,F,
Girls,67.36,14,Hope Harris,Cedar Hill,62.41,102.06,45.36,99.79,247.21,Single-ply,SBD,F,
Girls,67.36,15,Caitlyn Flaherty,Frisco Memorial,66.59,83.91,61.23,102.06,247.21,Single-ply,SBD,F,
Girls,67.36,16,Karen Lopez,Sherman,62.55,92.99,56.7,92.99,242.67,Single-ply,SBD,F,
Girls,67.36,17,Fernanda Rios,Castleberry,62.05,92.99,52.16,95.25,240.4,Single-ply,SBD,F,
Girls,67.36,18,Evan Hill #1,Frisco Memorial,64.41,95.25,45.36,95.25,235.87,Single-ply,SBD,F,
Girls,67.36,19,Ainsley Schraeder,Melissa,65.73,90.72,38.56,97.52,226.8,Single-ply,SBD,F,
Girls,67.36,20,Kayla Paton,Melissa,64.86,79.38,38.56,83.91,201.85,Single-ply,SBD,F,
Girls,67.36,21,Maddie Marosek,Nevada Community,63.09,74.84,31.75,79.38,185.97,Single-ply,SBD,F,
Girls,67.36,22,Stephanie Gonzalez,Carrollton Turner,62.69,68.04,29.48,68.04,165.56,Single-ply,SBD,F,
Girls,67.36,DQ,Addison Meuth,Farmersville,66.54,77.11,,,,Single-ply,SBD,F,
Girls,67.36,DQ,Love Riley,Carrollton Ranchview,67.13,,,,,Single-ply,SBD,F,
Girls,67.36,DQ,Alondra Martinez,Castleberry,67.13,,,,,Single-ply,SBD,F,
Girls,75.07,1,Ella Moseri,Wylie East,70.76,136.08,77.11,167.83,381.02,Single-ply,SBD,F,
Girls,75.07,2,Nyliah White,Wylie East,73.12,149.69,68.04,147.42,365.14,Single-ply,SBD,F,
Girls,75.07,3,Ashley Boatright,Sherman,69.76,149.69,79.38,127.01,356.07,Single-ply,SBD,F,
Girls,75.07,4,Lanie Fajerson,Sherman,70.26,131.54,65.77,127.01,324.32,Single-ply,SBD,F,
Girls,75.07,5,Brianna McGee,Melissa,70.22,136.08,61.23,115.67,312.98,Single-ply,SBD,F,
Girls,75.07,6,Mya Carr,Wylie,70.31,131.54,54.43,120.2,306.17,Single-ply,SBD,F,
Girls,75.07,7,Aviana Baca,Princeton,75.02,131.54,40.82,133.81,306.17,Single-ply,SBD,F,
Girls,75.07,8,Arlene Sanchez,Castleberry,73.66,113.4,61.23,122.47,297.1,Single-ply,SBD,F,
Girls,75.07,9,Lillia Farlow,Bishop Lynch,72.26,122.47,54.43,117.93,294.84,Single-ply,SBD,F,
Girls,75.07,10,Priscilla Abrego,Castleberry,67.95,102.06,58.97,115.67,276.69,Single-ply,SBD,F,
Girls,75.07,11,Katie Benton,Frisco Centennial,70.44,111.13,47.63,106.59,265.35,Single-ply,SBD,F,
Girls,75.07,12,Natalia Sepulveda,Sherman,68.31,99.79,47.63,86.18,233.6,Single-ply,SBD,F,
Girls,75.07,13,Jaylynn Huff,Howe,75.07,106.59,45.36,81.65,233.6,Single-ply,SBD,F,
Girls,75.07,14,Alexis Hoverter,Carrollton Turner,71.89,79.38,47.63,83.91,210.92,Single-ply,SBD,F,
Girls,75.07,15,Tamia Downs,Frisco Memorial,72.39,68.04,43.09,92.99,204.12,Single-ply,SBD,F,
Girls,75.07,16,Torri Downs,Frisco Memorial,69.54,68.04,47.63,86.18,201.85,Single-ply,SBD,F,
Girls,75.07,DQ,Clara Hernandez,Carrollton Creekview,74.89,49.9,,,,Single-ply,SBD,F,
Girls,75.07,DQ,Autumn Bradshaw,Princeton,70.03,79.38,,,,Single-ply,SBD,F,
Girls,75.07,DQ,Chelsea George,Melissa,74.84,,,,,Single-ply,SBD,F,
Girls,82.33,1,Stefani Norton,Nevada Community,80.01,179.17,115.67,138.35,433.18,Single-ply,SBD,F,
Girls,82.33,2,Sydney Haas,Wylie East,80.15,145.15,74.84,133.81,353.8,Single-ply,SBD,F,
Girls,82.33,3,Glory Musa,Wylie,79.7,142.88,63.5,117.93,324.32,Single-ply,SBD,F,
Girls,82.33,4,Kendall Nalley,Wylie,78.15,122.47,74.84,117.93,315.25,Single-ply,SBD,F,
Girls,82.33,5,Grace Holz,Frisco Memorial,77.84,113.4,65.77,124.74,303.91,Single-ply,SBD,F,
Girls,82.33,6,Carley Hall,Wylie,75.8,113.4,61.23,115.67,290.3,Single-ply,SBD,F,
Girls,82.33,7,Tia Dodd,Princeton,77.97,120.2,65.77,102.06,288.03,Single-ply,SBD,F,
Girls,82.33,8,Mea Benton,Sherman,78.2,115.67,56.7,106.59,278.96,Single-ply,SBD,F,
Girls,82.33,9,Kalynn Byxbe,Princeton,75.8,104.33,56.7,102.06,263.08,Single-ply,SBD,F,
Girls,82.33,10,Trinity Keys,Carrollton Ranchview,77.56,97.52,49.9,115.67,263.08,Single-ply,SBD,F,
Girls,82.33,11,Bryanna Perez,Carrollton Turner,75.16,102.06,58.97,97.52,258.55,Single-ply,SBD,F,
Girls,82.33,12,Sidney Richardson,Bishop Lynch,80.47,90.72,56.7,106.59,254.01,Single-ply,SBD,F,
Girls,82.33,13,Ava Taylor,Frisco Memorial,75.8,99.79,54.43,97.52,251.74,Single-ply,SBD,F,
Girls,82.33,14,Vanessa De Jesus,Farmersville,77.16,92.99,56.7,99.79,249.48,Single-ply,SBD,F,
Girls,82.33,DQ,Sydney Bazan,Princeton,77.66,156.49,,,,Single-ply,SBD,F,
Girls,82.33,DQ,Kai Phillips,Carrollton Turner,82.1,,,,,Single-ply,SBD,F,
Girls,90.04,1,Peyton Chianese,Frisco Memorial,87.86,138.35,74.84,133.81,347,Single-ply,SBD,F,
Girls,90.04,2,Erynn George,Cedar Hill,87.23,136.08,74.84,133.81,344.73,Single-ply,SBD,F,
Girls,90.04,3,Stephanie Cruz,Wylie East,83.37,136.08,70.31,117.93,324.32,Single-ply,SBD,F,
Girls,90.04,4,Lila Holmes,Carrollton Creekview,83.78,120.2,61.23,124.74,306.17,Single-ply,SBD,F,
Girls,90.04,5,Erica Hunt,Princeton,85.68,104.33,63.5,113.4,281.23,Single-ply,SBD,F,
Girls,90.04,6,Natalia Sandoval,Farmersville,89.09,102.06,49.9,102.06,254.01,Single-ply,SBD,F,
Girls,90.04,7,Gabrielle Holland,Frisco Centennial,86.45,90.72,43.09,113.4,247.21,Single-ply,SBD,F,
Girls,90.04,8,Sara Barboza,Castleberry,83.19,90.72,45.36,102.06,238.14,Single-ply,SBD,F,
Girls,90.04,9,Rachel Lambeth,Frisco Wakeland,85.5,81.65,40.82,79.38,201.85,Single-ply,SBD,F,
Girls,90.04,10,Sarah Overholtzer,Frisco Memorial,83.01,56.7,43.09,83.91,183.7,Single-ply,SBD,F,
Girls,90.04,11,Ashly Chavez,Carrollton Turner,85.5,65.77,29.48,74.84,170.1,Single-ply,SBD,F,
Girls,90.04,DQ,Emily Duran,Farmersville,89.81,,,,,Single-ply,SBD,F,
Girls,100.02,1,Yadira Abreu,Castleberry,99.25,151.95,88.45,149.69,390.09,Single-ply,SBD,F,
Girls,100.02,2,Karina Moreno,Castleberry,95.39,138.35,95.25,142.88,376.48,Single-ply,SBD,F,
Girls,100.02,3,Serenity Clegg,Cedar Hill,99.88,142.88,68.04,149.69,360.61,Single-ply,SBD,F,
Girls,100.02,4,Briana Webb,Wylie,99.34,165.56,72.57,117.93,356.07,Single-ply,SBD,F,
Girls,100.02,5,Nytisa Adams,Cedar Hill,99.97,142.88,74.84,136.08,353.8,Single-ply,SBD,F,
Girls,100.02,6,Cristy Amine,Frisco Centennial,96.39,129.27,63.5,127.01,319.78,Single-ply,SBD,F,
Girls,100.02,7,Sarai Galaviz,Bishop Lynch,94.44,79.38,45.36,104.33,229.06,Single-ply,SBD,F,
Girls,100.02,DQ,Katie Nguyen,Wylie,94.66,181.44,,,,Single-ply,SBD,F,
Girls,117.71,1,Jamari Nathan-Woods,Cedar Hill,108.45,176.9,86.18,149.69,412.77,Single-ply,SBD,F,
Girls,117.71,2,Frances Frank-Nwafor,Wylie East,100.92,136.08,52.16,161.03,349.27,Single-ply,SBD,F,
Girls,117.71,3,Raquel Duran,Wylie,105.1,145.15,74.84,129.27,349.27,Single-ply,SBD,F,
Girls,117.71,4,Deysy Fuentes,Princeton,113.81,142.88,61.23,136.08,340.19,Single-ply,SBD,F,
Girls,117.71,5,Destiny Valdez,Wylie East,110.54,127.01,77.11,131.54,335.66,Single-ply,SBD,F,
Girls,117.71,6,Carolyn Stepherson,Carrollton Creekview,112.54,142.88,52.16,129.27,324.32,Single-ply,SBD,F,
Girls,117.71,7,Olivia Massey,Terrell,104.24,111.13,40.82,120.2,272.16,Single-ply,SBD,F,
Girls,117.71,DQ,Daniela Galaviz,Sherman,110.86,83.91,56.7,,,Single-ply,SBD,F,
Girls,117.71,DQ,Cameron Davis #2,Frisco Memorial,104.73,127.01,,,,Single-ply,SBD,F,
Girls,117.71+,1,Kristen Howard,Wylie,119.11,235.87,113.4,190.51,539.77,Single-ply,SBD,F,
Girls,117.71+,2,Cayla Harris,Cedar Hill,120.25,192.78,81.65,147.42,421.84,Single-ply,SBD,F,
Girls,117.71+,3,Zoe Young,Frisco Heritage,125.46,154.22,83.91,149.69,387.82,Single-ply,SBD,F,
Girls,117.71+,4,Madyson Mills,Wylie East,121.43,131.54,88.45,131.54,351.53,Single-ply,SBD,F,
Girls,117.71+,5,Semaj Gabriel,Princeton,137.12,122.47,70.31,131.54,324.32,Single-ply,SBD,F,
Girls,117.71+,6,Gracie Smith,Farmersville,125.37,117.93,63.5,124.74,306.17,Single-ply,SBD,F,
